{
  "test_profiles": ["Debug"],
  "test_targets": ["unit_test", "stress_test"],
  "lint_files": ["spinlock.hpp"],
  "submit_files": ["atomics.S", "spinlock.hpp"],
  "forbidden_patterns": ["Your asm code goes here", "Solution starts here"]
}
